<svg width="40px" height="300px" viewBox="0 0 40 300" xmlns="http://www.w3.org/2000/svg">
<path d="M9.5,1.5 L9.5,298.5" stroke="#1AB3FF"/>
<polyline stroke="#1AB3FF" fill="none" points="5.5 5.5 9.5 0.5 13.5 5.5"/>
</svg>